%YAML 1.1
%TAG !u! tag:unity3d.com,2011:
--- !u!74 &7400000
AnimationClip:
  m_ObjectHideFlags: 0
  m_CorrespondingSourceObject: {fileID: 0}
  m_PrefabInstance: {fileID: 0}
  m_PrefabAsset: {fileID: 0}
  m_Name: Walk
  serializedVersion: 6
  m_Legacy: 0
  m_Compressed: 0
  m_UseHighQualityCurve: 1
  m_RotationCurves: []
  m_CompressedRotationCurves: []
  m_EulerCurves: []
  m_PositionCurves: []
  m_ScaleCurves: []
  m_FloatCurves: []
  m_PPtrCurves:
  - curve:
    - time: 0
      value: {fileID: 21300000, guid: ba2dce1ea015fea47ab10e428bd3b9d9, type: 3}
    - time: 0.083333336
      value: {fileID: 21300000, guid: 1ff0d04b6e7bae641a8d95ab2f8888bf, type: 3}
    - time: 0.16666667
      value: {fileID: 21300000, guid: 9a9a14eedcf22f4488c8f87548a7f950, type: 3}
    - time: 0.25
      value: {fileID: 21300000, guid: cb4d11381e5f2d54597d632026adc822, type: 3}
    - time: 0.33333334
      value: {fileID: 21300000, guid: dc82a8e7f981f35459d387a5284acb2c, type: 3}
    - time: 0.41666666
      value: {fileID: 21300000, guid: 4ea8558a2f912a14ab80603036b44f7e, type: 3}
    - time: 0.5
      value: {fileID: 21300000, guid: e31b28997269a13408411716120736d3, type: 3}
    - time: 0.5833333
      value: {fileID: 21300000, guid: 8b7af43000304404f8fa991ccb69a558, type: 3}
    - time: 0.6666667
      value: {fileID: 21300000, guid: d72390230972e134b8d22d6f2004c5dc, type: 3}
    - time: 0.75
      value: {fileID: 21300000, guid: 42c0c2187055c8c43a0bd044371c0160, type: 3}
    - time: 0.8333333
      value: {fileID: 21300000, guid: f6b3a709b458ae143bffdcb68899c38d, type: 3}
    attribute: m_Sprite
    path: 
    classID: 212
    script: {fileID: 0}
  m_SampleRate: 12
  m_WrapMode: 0
  m_Bounds:
    m_Center: {x: 0, y: 0, z: 0}
    m_Extent: {x: 0, y: 0, z: 0}
  m_ClipBindingConstant:
    genericBindings:
    - serializedVersion: 2
      path: 0
      attribute: 0
      script: {fileID: 0}
      typeID: 212
      customType: 23
      isPPtrCurve: 1
    pptrCurveMapping:
    - {fileID: 21300000, guid: ba2dce1ea015fea47ab10e428bd3b9d9, type: 3}
    - {fileID: 21300000, guid: 1ff0d04b6e7bae641a8d95ab2f8888bf, type: 3}
    - {fileID: 21300000, guid: 9a9a14eedcf22f4488c8f87548a7f950, type: 3}
    - {fileID: 21300000, guid: cb4d11381e5f2d54597d632026adc822, type: 3}
    - {fileID: 21300000, guid: dc82a8e7f981f35459d387a5284acb2c, type: 3}
    - {fileID: 21300000, guid: 4ea8558a2f912a14ab80603036b44f7e, type: 3}
    - {fileID: 21300000, guid: e31b28997269a13408411716120736d3, type: 3}
    - {fileID: 21300000, guid: 8b7af43000304404f8fa991ccb69a558, type: 3}
    - {fileID: 21300000, guid: d72390230972e134b8d22d6f2004c5dc, type: 3}
    - {fileID: 21300000, guid: 42c0c2187055c8c43a0bd044371c0160, type: 3}
    - {fileID: 21300000, guid: f6b3a709b458ae143bffdcb68899c38d, type: 3}
  m_AnimationClipSettings:
    serializedVersion: 2
    m_AdditiveReferencePoseClip: {fileID: 0}
    m_AdditiveReferencePoseTime: 0
    m_StartTime: 0
    m_StopTime: 0.9166666
    m_OrientationOffsetY: 0
    m_Level: 0
    m_CycleOffset: 0
    m_HasAdditiveReferencePose: 0
    m_LoopTime: 1
    m_LoopBlend: 0
    m_LoopBlendOrientation: 0
    m_LoopBlendPositionY: 0
    m_LoopBlendPositionXZ: 0
    m_KeepOriginalOrientation: 0
    m_KeepOriginalPositionY: 1
    m_KeepOriginalPositionXZ: 0
    m_HeightFromFeet: 0
    m_Mirror: 0
  m_EditorCurves: []
  m_EulerEditorCurves: []
  m_HasGenericRootTransform: 0
  m_HasMotionFloatCurves: 0
  m_Events: []
